code/2025_new/tb/vivado/vivado.sim/sim_1/behav/xsim/simulate.log
Time resolution is 1 ps
/------------------START----------------------------\
==== Stack Dump  at PC 0x00000000 ====
mem[0x0000] = 0x00000000   mem[0x0004] = 0x00000000   mem[0x0008] = 0x00000000
mem[0x000c] = 0x00000000   mem[0x0010] = 0x00000000   mem[0x0014] = 0x00000000
mem[0x0018] = 0x00000000   mem[0x001c] = 0x00000000   mem[0x0020] = 0x00000000
mem[0x0024] = 0x00000000   mem[0x0028] = 0x00000000   mem[0x002c] = 0x00000000
mem[0x0030] = 0x00000000   mem[0x0034] = 0x00000000   mem[0x0038] = 0x00000000
mem[0x003c] = 0x00000000   mem[0x0040] = 0x00000000   mem[0x0044] = 0x00000000
mem[0x0048] = 0x00000000   mem[0x004c] = 0x00000000   mem[0x0050] = 0x00000000
mem[0x0054] = 0x00000000   mem[0x0058] = 0x00000000   mem[0x005c] = 0x00000000
mem[0x0060] = 0x00000000   mem[0x0064] = 0x00000000   mem[0x0068] = 0x00000000
mem[0x006c] = 0x00000000   mem[0x0070] = 0x00000000   mem[0x0074] = 0x00000000
mem[0x0078] = 0x00000000   mem[0x007c] = 0x00000000   mem[0x0080] = 0x00000000
mem[0x0084] = 0x00000000   mem[0x0088] = 0x00000000   mem[0x008c] = 0x00000000
mem[0x0090] = 0x00000000   mem[0x0094] = 0x00000000   mem[0x0098] = 0x00000000
mem[0x009c] = 0x00000000   mem[0x00a0] = 0x00000000   mem[0x00a4] = 0x00000000
mem[0x00a8] = 0x00000000   mem[0x00ac] = 0x00000000   mem[0x00b0] = 0x00000000
mem[0x00b4] = 0x00000000   mem[0x00b8] = 0x00000000   mem[0x00bc] = 0x00000000
mem[0x00c0] = 0x00000000   mem[0x00c4] = 0x00000000   mem[0x00c8] = 0x00000000
mem[0x00cc] = 0x00000000   mem[0x00d0] = 0x00000000   mem[0x00d4] = 0x00000000

[WB] PC: 0x00000000 | Inst: 0x27bdffd8 |                                                                 
     $ra=0x00000000 | $sp=0x000000a4 | $s8=0x000000cc | $v0=0x00000000 | $v1=0x00000000 | a0=0x00000000
\------------------end-----------------------------/
/------------------START----------------------------\
==== Stack Dump  at PC 0x00000004 ====
mem[0x0000] = 0x00000000   mem[0x0004] = 0x00000000   mem[0x0008] = 0x00000000
mem[0x000c] = 0x00000000   mem[0x0010] = 0x00000000   mem[0x0014] = 0x00000000
mem[0x0018] = 0x00000000   mem[0x001c] = 0x00000000   mem[0x0020] = 0x00000000
mem[0x0024] = 0x00000000   mem[0x0028] = 0x00000000   mem[0x002c] = 0x00000000
mem[0x0030] = 0x00000000   mem[0x0034] = 0x00000000   mem[0x0038] = 0x00000000
mem[0x003c] = 0x00000000   mem[0x0040] = 0x00000000   mem[0x0044] = 0x00000000
mem[0x0048] = 0x00000000   mem[0x004c] = 0x00000000   mem[0x0050] = 0x00000000
mem[0x0054] = 0x00000000   mem[0x0058] = 0x00000000   mem[0x005c] = 0x00000000
mem[0x0060] = 0x00000000   mem[0x0064] = 0x00000000   mem[0x0068] = 0x00000000
mem[0x006c] = 0x00000000   mem[0x0070] = 0x00000000   mem[0x0074] = 0x00000000
mem[0x0078] = 0x00000000   mem[0x007c] = 0x00000000   mem[0x0080] = 0x00000000
mem[0x0084] = 0x00000000   mem[0x0088] = 0x00000000   mem[0x008c] = 0x00000000
mem[0x0090] = 0x00000000   mem[0x0094] = 0x00000000   mem[0x0098] = 0x00000000
mem[0x009c] = 0x00000000   mem[0x00a0] = 0x00000000   mem[0x00a4] = 0x00000000
mem[0x00a8] = 0x00000000   mem[0x00ac] = 0x00000000   mem[0x00b0] = 0x00000000
mem[0x00b4] = 0x00000000   mem[0x00b8] = 0x00000000   mem[0x00bc] = 0x00000000
mem[0x00c0] = 0x00000000   mem[0x00c4] = 0x00000000   mem[0x00c8] = 0x00000000
mem[0x00cc] = 0x00000000   mem[0x00d0] = 0x00000000   mem[0x00d4] = 0x00000000

     [SW] mem[0x000000c8] <=     $ra with 0x00000000
\------------------end-----------------------------/
/------------------START----------------------------\
==== Stack Dump  at PC 0x00000008 ====
mem[0x0000] = 0x00000000   mem[0x0004] = 0x00000000   mem[0x0008] = 0x00000000
mem[0x000c] = 0x00000000   mem[0x0010] = 0x00000000   mem[0x0014] = 0x00000000
mem[0x0018] = 0x00000000   mem[0x001c] = 0x00000000   mem[0x0020] = 0x00000000
mem[0x0024] = 0x00000000   mem[0x0028] = 0x00000000   mem[0x002c] = 0x00000000
mem[0x0030] = 0x00000000   mem[0x0034] = 0x00000000   mem[0x0038] = 0x00000000
mem[0x003c] = 0x00000000   mem[0x0040] = 0x00000000   mem[0x0044] = 0x00000000
mem[0x0048] = 0x00000000   mem[0x004c] = 0x00000000   mem[0x0050] = 0x00000000
mem[0x0054] = 0x00000000   mem[0x0058] = 0x00000000   mem[0x005c] = 0x00000000
mem[0x0060] = 0x00000000   mem[0x0064] = 0x00000000   mem[0x0068] = 0x00000000
mem[0x006c] = 0x00000000   mem[0x0070] = 0x00000000   mem[0x0074] = 0x00000000
mem[0x0078] = 0x00000000   mem[0x007c] = 0x00000000   mem[0x0080] = 0x00000000
mem[0x0084] = 0x00000000   mem[0x0088] = 0x00000000   mem[0x008c] = 0x00000000
mem[0x0090] = 0x00000000   mem[0x0094] = 0x00000000   mem[0x0098] = 0x00000000
mem[0x009c] = 0x00000000   mem[0x00a0] = 0x00000000   mem[0x00a4] = 0x00000000
mem[0x00a8] = 0x00000000   mem[0x00ac] = 0x00000000   mem[0x00b0] = 0x00000000
mem[0x00b4] = 0x00000000   mem[0x00b8] = 0x00000000   mem[0x00bc] = 0x00000000
mem[0x00c0] = 0x00000000   mem[0x00c4] = 0x000000cc   mem[0x00c8] = 0x00000000
mem[0x00cc] = 0x00000000   mem[0x00d0] = 0x00000000   mem[0x00d4] = 0x00000000

     [SW] mem[0x000000c4] <=     $fp with 0x000000cc
\------------------end-----------------------------/
/------------------START----------------------------\
==== Stack Dump  at PC 0x0000000c ====
mem[0x0000] = 0x00000000   mem[0x0004] = 0x00000000   mem[0x0008] = 0x00000000
mem[0x000c] = 0x00000000   mem[0x0010] = 0x00000000   mem[0x0014] = 0x00000000
mem[0x0018] = 0x00000000   mem[0x001c] = 0x00000000   mem[0x0020] = 0x00000000
mem[0x0024] = 0x00000000   mem[0x0028] = 0x00000000   mem[0x002c] = 0x00000000
mem[0x0030] = 0x00000000   mem[0x0034] = 0x00000000   mem[0x0038] = 0x00000000
mem[0x003c] = 0x00000000   mem[0x0040] = 0x00000000   mem[0x0044] = 0x00000000
mem[0x0048] = 0x00000000   mem[0x004c] = 0x00000000   mem[0x0050] = 0x00000000
mem[0x0054] = 0x00000000   mem[0x0058] = 0x00000000   mem[0x005c] = 0x00000000
mem[0x0060] = 0x00000000   mem[0x0064] = 0x00000000   mem[0x0068] = 0x00000000
mem[0x006c] = 0x00000000   mem[0x0070] = 0x00000000   mem[0x0074] = 0x00000000
mem[0x0078] = 0x00000000   mem[0x007c] = 0x00000000   mem[0x0080] = 0x00000000
mem[0x0084] = 0x00000000   mem[0x0088] = 0x00000000   mem[0x008c] = 0x00000000
mem[0x0090] = 0x00000000   mem[0x0094] = 0x00000000   mem[0x0098] = 0x00000000
mem[0x009c] = 0x00000000   mem[0x00a0] = 0x00000000   mem[0x00a4] = 0x00000000
mem[0x00a8] = 0x00000000   mem[0x00ac] = 0x00000000   mem[0x00b0] = 0x00000000
mem[0x00b4] = 0x00000000   mem[0x00b8] = 0x00000000   mem[0x00bc] = 0x00000000
mem[0x00c0] = 0x00000000   mem[0x00c4] = 0x000000cc   mem[0x00c8] = 0x00000000
mem[0x00cc] = 0x00000000   mem[0x00d0] = 0x00000000   mem[0x00d4] = 0x00000000

[WB] PC: 0x0000000c | Inst: 0x03a0f025 |                                                                 
     $ra=0x00000000 | $sp=0x000000a4 | $s8=0x000000a4 | $v0=0x00000000 | $v1=0x00000000 | a0=0x00000000
\------------------end-----------------------------/
/------------------START----------------------------\
==== Stack Dump  at PC 0x00000010 ====
mem[0x0000] = 0x00000000   mem[0x0004] = 0x00000000   mem[0x0008] = 0x00000000
mem[0x000c] = 0x00000000   mem[0x0010] = 0x00000000   mem[0x0014] = 0x00000000
mem[0x0018] = 0x00000000   mem[0x001c] = 0x00000000   mem[0x0020] = 0x00000000
mem[0x0024] = 0x00000000   mem[0x0028] = 0x00000000   mem[0x002c] = 0x00000000
mem[0x0030] = 0x00000000   mem[0x0034] = 0x00000000   mem[0x0038] = 0x00000000
mem[0x003c] = 0x00000000   mem[0x0040] = 0x00000000   mem[0x0044] = 0x00000000
mem[0x0048] = 0x00000000   mem[0x004c] = 0x00000000   mem[0x0050] = 0x00000000
mem[0x0054] = 0x00000000   mem[0x0058] = 0x00000000   mem[0x005c] = 0x00000000
mem[0x0060] = 0x00000000   mem[0x0064] = 0x00000000   mem[0x0068] = 0x00000000
mem[0x006c] = 0x00000000   mem[0x0070] = 0x00000000   mem[0x0074] = 0x00000000
mem[0x0078] = 0x00000000   mem[0x007c] = 0x00000000   mem[0x0080] = 0x00000000
mem[0x0084] = 0x00000000   mem[0x0088] = 0x00000000   mem[0x008c] = 0x00000000
mem[0x0090] = 0x00000000   mem[0x0094] = 0x00000000   mem[0x0098] = 0x00000000
mem[0x009c] = 0x00000000   mem[0x00a0] = 0x00000000   mem[0x00a4] = 0x00000000
mem[0x00a8] = 0x00000000   mem[0x00ac] = 0x00000000   mem[0x00b0] = 0x00000000
mem[0x00b4] = 0x00000000   mem[0x00b8] = 0x00000000   mem[0x00bc] = 0x00000000
mem[0x00c0] = 0x00000000   mem[0x00c4] = 0x000000cc   mem[0x00c8] = 0x00000000
mem[0x00cc] = 0x00000000   mem[0x00d0] = 0x00000000   mem[0x00d4] = 0x00000000

[WB] PC: 0x00000010 | Inst: 0x24020005 |                                                                 
     $ra=0x00000000 | $sp=0x000000a4 | $s8=0x000000a4 | $v0=0x00000005 | $v1=0x00000000 | a0=0x00000000
\------------------end-----------------------------/
/------------------START----------------------------\
==== Stack Dump  at PC 0x00000014 ====
mem[0x0000] = 0x00000000   mem[0x0004] = 0x00000000   mem[0x0008] = 0x00000000
mem[0x000c] = 0x00000000   mem[0x0010] = 0x00000000   mem[0x0014] = 0x00000000
mem[0x0018] = 0x00000000   mem[0x001c] = 0x00000000   mem[0x0020] = 0x00000000
mem[0x0024] = 0x00000000   mem[0x0028] = 0x00000000   mem[0x002c] = 0x00000000
mem[0x0030] = 0x00000000   mem[0x0034] = 0x00000000   mem[0x0038] = 0x00000000
mem[0x003c] = 0x00000000   mem[0x0040] = 0x00000000   mem[0x0044] = 0x00000000
mem[0x0048] = 0x00000000   mem[0x004c] = 0x00000000   mem[0x0050] = 0x00000000
mem[0x0054] = 0x00000000   mem[0x0058] = 0x00000000   mem[0x005c] = 0x00000000
mem[0x0060] = 0x00000000   mem[0x0064] = 0x00000000   mem[0x0068] = 0x00000000
mem[0x006c] = 0x00000000   mem[0x0070] = 0x00000000   mem[0x0074] = 0x00000000
mem[0x0078] = 0x00000000   mem[0x007c] = 0x00000000   mem[0x0080] = 0x00000000
mem[0x0084] = 0x00000000   mem[0x0088] = 0x00000000   mem[0x008c] = 0x00000000
mem[0x0090] = 0x00000000   mem[0x0094] = 0x00000000   mem[0x0098] = 0x00000000
mem[0x009c] = 0x00000000   mem[0x00a0] = 0x00000000   mem[0x00a4] = 0x00000000
mem[0x00a8] = 0x00000000   mem[0x00ac] = 0x00000000   mem[0x00b0] = 0x00000000
mem[0x00b4] = 0x00000000   mem[0x00b8] = 0x00000000   mem[0x00bc] = 0x00000005
mem[0x00c0] = 0x00000000   mem[0x00c4] = 0x000000cc   mem[0x00c8] = 0x00000000
mem[0x00cc] = 0x00000000   mem[0x00d0] = 0x00000000   mem[0x00d4] = 0x00000000

     [SW] mem[0x000000bc] <=     $v0 with 0x00000005
\------------------end-----------------------------/
/------------------START----------------------------\
==== Stack Dump  at PC 0x00000018 ====
mem[0x0000] = 0x00000000   mem[0x0004] = 0x00000000   mem[0x0008] = 0x00000000
mem[0x000c] = 0x00000000   mem[0x0010] = 0x00000000   mem[0x0014] = 0x00000000
mem[0x0018] = 0x00000000   mem[0x001c] = 0x00000000   mem[0x0020] = 0x00000000
mem[0x0024] = 0x00000000   mem[0x0028] = 0x00000000   mem[0x002c] = 0x00000000
mem[0x0030] = 0x00000000   mem[0x0034] = 0x00000000   mem[0x0038] = 0x00000000
mem[0x003c] = 0x00000000   mem[0x0040] = 0x00000000   mem[0x0044] = 0x00000000
mem[0x0048] = 0x00000000   mem[0x004c] = 0x00000000   mem[0x0050] = 0x00000000
mem[0x0054] = 0x00000000   mem[0x0058] = 0x00000000   mem[0x005c] = 0x00000000
mem[0x0060] = 0x00000000   mem[0x0064] = 0x00000000   mem[0x0068] = 0x00000000
mem[0x006c] = 0x00000000   mem[0x0070] = 0x00000000   mem[0x0074] = 0x00000000
mem[0x0078] = 0x00000000   mem[0x007c] = 0x00000000   mem[0x0080] = 0x00000000
mem[0x0084] = 0x00000000   mem[0x0088] = 0x00000000   mem[0x008c] = 0x00000000
mem[0x0090] = 0x00000000   mem[0x0094] = 0x00000000   mem[0x0098] = 0x00000000
mem[0x009c] = 0x00000000   mem[0x00a0] = 0x00000000   mem[0x00a4] = 0x00000000
mem[0x00a8] = 0x00000000   mem[0x00ac] = 0x00000000   mem[0x00b0] = 0x00000000
mem[0x00b4] = 0x00000000   mem[0x00b8] = 0x00000000   mem[0x00bc] = 0x00000005
mem[0x00c0] = 0x00000000   mem[0x00c4] = 0x000000cc   mem[0x00c8] = 0x00000000
mem[0x00cc] = 0x00000000   mem[0x00d0] = 0x00000000   mem[0x00d4] = 0x00000000

[WB] PC: 0x00000018 | Inst: 0x0c000012 |                                                                 
     $ra=0x0000001c | $sp=0x000000a4 | $s8=0x000000a4 | $v0=0x00000005 | $v1=0x00000000 | a0=0x00000000
\------------------end-----------------------------/
/------------------START----------------------------\
==== Stack Dump  at PC 0x00000048 ====
mem[0x0000] = 0x00000000   mem[0x0004] = 0x00000000   mem[0x0008] = 0x00000000
mem[0x000c] = 0x00000000   mem[0x0010] = 0x00000000   mem[0x0014] = 0x00000000
mem[0x0018] = 0x00000000   mem[0x001c] = 0x00000000   mem[0x0020] = 0x00000000
mem[0x0024] = 0x00000000   mem[0x0028] = 0x00000000   mem[0x002c] = 0x00000000
mem[0x0030] = 0x00000000   mem[0x0034] = 0x00000000   mem[0x0038] = 0x00000000
mem[0x003c] = 0x00000000   mem[0x0040] = 0x00000000   mem[0x0044] = 0x00000000
mem[0x0048] = 0x00000000   mem[0x004c] = 0x00000000   mem[0x0050] = 0x00000000
mem[0x0054] = 0x00000000   mem[0x0058] = 0x00000000   mem[0x005c] = 0x00000000
mem[0x0060] = 0x00000000   mem[0x0064] = 0x00000000   mem[0x0068] = 0x00000000
mem[0x006c] = 0x00000000   mem[0x0070] = 0x00000000   mem[0x0074] = 0x00000000
mem[0x0078] = 0x00000000   mem[0x007c] = 0x00000000   mem[0x0080] = 0x00000000
mem[0x0084] = 0x00000000   mem[0x0088] = 0x00000000   mem[0x008c] = 0x00000000
mem[0x0090] = 0x00000000   mem[0x0094] = 0x00000000   mem[0x0098] = 0x00000000
mem[0x009c] = 0x00000000   mem[0x00a0] = 0x00000000   mem[0x00a4] = 0x00000000
mem[0x00a8] = 0x00000000   mem[0x00ac] = 0x00000000   mem[0x00b0] = 0x00000000
mem[0x00b4] = 0x00000000   mem[0x00b8] = 0x00000000   mem[0x00bc] = 0x00000005
mem[0x00c0] = 0x00000000   mem[0x00c4] = 0x000000cc   mem[0x00c8] = 0x00000000
mem[0x00cc] = 0x00000000   mem[0x00d0] = 0x00000000   mem[0x00d4] = 0x00000000

[WB] PC: 0x00000048 | Inst: 0x27bdffe0 |                                                                 
     $ra=0x0000001c | $sp=0x00000084 | $s8=0x000000a4 | $v0=0x00000005 | $v1=0x00000000 | a0=0x00000000
\------------------end-----------------------------/
/------------------START----------------------------\
==== Stack Dump  at PC 0x0000004c ====
mem[0x0000] = 0x00000000   mem[0x0004] = 0x00000000   mem[0x0008] = 0x00000000
mem[0x000c] = 0x00000000   mem[0x0010] = 0x00000000   mem[0x0014] = 0x00000000
mem[0x0018] = 0x00000000   mem[0x001c] = 0x00000000   mem[0x0020] = 0x00000000
mem[0x0024] = 0x00000000   mem[0x0028] = 0x00000000   mem[0x002c] = 0x00000000
mem[0x0030] = 0x00000000   mem[0x0034] = 0x00000000   mem[0x0038] = 0x00000000
mem[0x003c] = 0x00000000   mem[0x0040] = 0x00000000   mem[0x0044] = 0x00000000
mem[0x0048] = 0x00000000   mem[0x004c] = 0x00000000   mem[0x0050] = 0x00000000
mem[0x0054] = 0x00000000   mem[0x0058] = 0x00000000   mem[0x005c] = 0x00000000
mem[0x0060] = 0x00000000   mem[0x0064] = 0x00000000   mem[0x0068] = 0x00000000
mem[0x006c] = 0x00000000   mem[0x0070] = 0x00000000   mem[0x0074] = 0x00000000
mem[0x0078] = 0x00000000   mem[0x007c] = 0x00000000   mem[0x0080] = 0x00000000
mem[0x0084] = 0x00000000   mem[0x0088] = 0x00000000   mem[0x008c] = 0x00000000
mem[0x0090] = 0x00000000   mem[0x0094] = 0x00000000   mem[0x0098] = 0x00000000
mem[0x009c] = 0x00000000   mem[0x00a0] = 0x0000001c   mem[0x00a4] = 0x00000000
mem[0x00a8] = 0x00000000   mem[0x00ac] = 0x00000000   mem[0x00b0] = 0x00000000
mem[0x00b4] = 0x00000000   mem[0x00b8] = 0x00000000   mem[0x00bc] = 0x00000005
mem[0x00c0] = 0x00000000   mem[0x00c4] = 0x000000cc   mem[0x00c8] = 0x00000000
mem[0x00cc] = 0x00000000   mem[0x00d0] = 0x00000000   mem[0x00d4] = 0x00000000

     [SW] mem[0x000000a0] <=     $ra with 0x0000001c
\------------------end-----------------------------/
/------------------START----------------------------\
==== Stack Dump  at PC 0x00000050 ====
mem[0x0000] = 0x00000000   mem[0x0004] = 0x00000000   mem[0x0008] = 0x00000000
mem[0x000c] = 0x00000000   mem[0x0010] = 0x00000000   mem[0x0014] = 0x00000000
mem[0x0018] = 0x00000000   mem[0x001c] = 0x00000000   mem[0x0020] = 0x00000000
mem[0x0024] = 0x00000000   mem[0x0028] = 0x00000000   mem[0x002c] = 0x00000000
mem[0x0030] = 0x00000000   mem[0x0034] = 0x00000000   mem[0x0038] = 0x00000000
mem[0x003c] = 0x00000000   mem[0x0040] = 0x00000000   mem[0x0044] = 0x00000000
mem[0x0048] = 0x00000000   mem[0x004c] = 0x00000000   mem[0x0050] = 0x00000000
mem[0x0054] = 0x00000000   mem[0x0058] = 0x00000000   mem[0x005c] = 0x00000000
mem[0x0060] = 0x00000000   mem[0x0064] = 0x00000000   mem[0x0068] = 0x00000000
mem[0x006c] = 0x00000000   mem[0x0070] = 0x00000000   mem[0x0074] = 0x00000000
mem[0x0078] = 0x00000000   mem[0x007c] = 0x00000000   mem[0x0080] = 0x00000000
mem[0x0084] = 0x00000000   mem[0x0088] = 0x00000000   mem[0x008c] = 0x00000000
mem[0x0090] = 0x00000000   mem[0x0094] = 0x00000000   mem[0x0098] = 0x00000000
mem[0x009c] = 0x000000a4   mem[0x00a0] = 0x0000001c   mem[0x00a4] = 0x00000000
mem[0x00a8] = 0x00000000   mem[0x00ac] = 0x00000000   mem[0x00b0] = 0x00000000
mem[0x00b4] = 0x00000000   mem[0x00b8] = 0x00000000   mem[0x00bc] = 0x00000005
mem[0x00c0] = 0x00000000   mem[0x00c4] = 0x000000cc   mem[0x00c8] = 0x00000000
mem[0x00cc] = 0x00000000   mem[0x00d0] = 0x00000000   mem[0x00d4] = 0x00000000

     [SW] mem[0x0000009c] <=     $fp with 0x000000a4
\------------------end-----------------------------/
/------------------START----------------------------\
==== Stack Dump  at PC 0x00000054 ====
mem[0x0000] = 0x00000000   mem[0x0004] = 0x00000000   mem[0x0008] = 0x00000000
mem[0x000c] = 0x00000000   mem[0x0010] = 0x00000000   mem[0x0014] = 0x00000000
mem[0x0018] = 0x00000000   mem[0x001c] = 0x00000000   mem[0x0020] = 0x00000000
mem[0x0024] = 0x00000000   mem[0x0028] = 0x00000000   mem[0x002c] = 0x00000000
mem[0x0030] = 0x00000000   mem[0x0034] = 0x00000000   mem[0x0038] = 0x00000000
mem[0x003c] = 0x00000000   mem[0x0040] = 0x00000000   mem[0x0044] = 0x00000000
mem[0x0048] = 0x00000000   mem[0x004c] = 0x00000000   mem[0x0050] = 0x00000000
mem[0x0054] = 0x00000000   mem[0x0058] = 0x00000000   mem[0x005c] = 0x00000000
mem[0x0060] = 0x00000000   mem[0x0064] = 0x00000000   mem[0x0068] = 0x00000000
mem[0x006c] = 0x00000000   mem[0x0070] = 0x00000000   mem[0x0074] = 0x00000000
mem[0x0078] = 0x00000000   mem[0x007c] = 0x00000000   mem[0x0080] = 0x00000000
mem[0x0084] = 0x00000000   mem[0x0088] = 0x00000000   mem[0x008c] = 0x00000000
mem[0x0090] = 0x00000000   mem[0x0094] = 0x00000000   mem[0x0098] = 0x00000000
mem[0x009c] = 0x000000a4   mem[0x00a0] = 0x0000001c   mem[0x00a4] = 0x00000000
mem[0x00a8] = 0x00000000   mem[0x00ac] = 0x00000000   mem[0x00b0] = 0x00000000
mem[0x00b4] = 0x00000000   mem[0x00b8] = 0x00000000   mem[0x00bc] = 0x00000005
mem[0x00c0] = 0x00000000   mem[0x00c4] = 0x000000cc   mem[0x00c8] = 0x00000000
mem[0x00cc] = 0x00000000   mem[0x00d0] = 0x00000000   mem[0x00d4] = 0x00000000

[WB] PC: 0x00000054 | Inst: 0x03a0f025 |                                                                 
     $ra=0x0000001c | $sp=0x00000084 | $s8=0x00000084 | $v0=0x00000005 | $v1=0x00000000 | a0=0x00000000
\------------------end-----------------------------/
/------------------START----------------------------\
==== Stack Dump  at PC 0x00000058 ====
mem[0x0000] = 0x00000000   mem[0x0004] = 0x00000000   mem[0x0008] = 0x00000000
mem[0x000c] = 0x00000000   mem[0x0010] = 0x00000000   mem[0x0014] = 0x00000000
mem[0x0018] = 0x00000000   mem[0x001c] = 0x00000000   mem[0x0020] = 0x00000000
mem[0x0024] = 0x00000000   mem[0x0028] = 0x00000000   mem[0x002c] = 0x00000000
mem[0x0030] = 0x00000000   mem[0x0034] = 0x00000000   mem[0x0038] = 0x00000000
mem[0x003c] = 0x00000000   mem[0x0040] = 0x00000000   mem[0x0044] = 0x00000000
mem[0x0048] = 0x00000000   mem[0x004c] = 0x00000000   mem[0x0050] = 0x00000000
mem[0x0054] = 0x00000000   mem[0x0058] = 0x00000000   mem[0x005c] = 0x00000000
mem[0x0060] = 0x00000000   mem[0x0064] = 0x00000000   mem[0x0068] = 0x00000000
mem[0x006c] = 0x00000000   mem[0x0070] = 0x00000000   mem[0x0074] = 0x00000000
mem[0x0078] = 0x00000000   mem[0x007c] = 0x00000000   mem[0x0080] = 0x00000000
mem[0x0084] = 0x00000000   mem[0x0088] = 0x00000000   mem[0x008c] = 0x00000000
mem[0x0090] = 0x00000000   mem[0x0094] = 0x00000000   mem[0x0098] = 0x00000000
mem[0x009c] = 0x000000a4   mem[0x00a0] = 0x0000001c   mem[0x00a4] = 0x00000000
mem[0x00a8] = 0x00000000   mem[0x00ac] = 0x00000000   mem[0x00b0] = 0x00000000
mem[0x00b4] = 0x00000000   mem[0x00b8] = 0x00000000   mem[0x00bc] = 0x00000005
mem[0x00c0] = 0x00000000   mem[0x00c4] = 0x000000cc   mem[0x00c8] = 0x00000000
mem[0x00cc] = 0x00000000   mem[0x00d0] = 0x00000000   mem[0x00d4] = 0x00000000

     [SW] mem[0x000000a4] <=     $a0 with 0x00000000
\------------------end-----------------------------/
/------------------START----------------------------\
==== Stack Dump  at PC 0x0000005c ====
mem[0x0000] = 0x00000000   mem[0x0004] = 0x00000000   mem[0x0008] = 0x00000000
mem[0x000c] = 0x00000000   mem[0x0010] = 0x00000000   mem[0x0014] = 0x00000000
mem[0x0018] = 0x00000000   mem[0x001c] = 0x00000000   mem[0x0020] = 0x00000000
mem[0x0024] = 0x00000000   mem[0x0028] = 0x00000000   mem[0x002c] = 0x00000000
mem[0x0030] = 0x00000000   mem[0x0034] = 0x00000000   mem[0x0038] = 0x00000000
mem[0x003c] = 0x00000000   mem[0x0040] = 0x00000000   mem[0x0044] = 0x00000000
mem[0x0048] = 0x00000000   mem[0x004c] = 0x00000000   mem[0x0050] = 0x00000000
mem[0x0054] = 0x00000000   mem[0x0058] = 0x00000000   mem[0x005c] = 0x00000000
mem[0x0060] = 0x00000000   mem[0x0064] = 0x00000000   mem[0x0068] = 0x00000000
mem[0x006c] = 0x00000000   mem[0x0070] = 0x00000000   mem[0x0074] = 0x00000000
mem[0x0078] = 0x00000000   mem[0x007c] = 0x00000000   mem[0x0080] = 0x00000000
mem[0x0084] = 0x00000000   mem[0x0088] = 0x00000000   mem[0x008c] = 0x00000000
mem[0x0090] = 0x00000000   mem[0x0094] = 0x00000000   mem[0x0098] = 0x00000000
mem[0x009c] = 0x000000a4   mem[0x00a0] = 0x0000001c   mem[0x00a4] = 0x00000000
mem[0x00a8] = 0x00000000   mem[0x00ac] = 0x00000000   mem[0x00b0] = 0x00000000
mem[0x00b4] = 0x00000000   mem[0x00b8] = 0x00000000   mem[0x00bc] = 0x00000005
mem[0x00c0] = 0x00000000   mem[0x00c4] = 0x000000cc   mem[0x00c8] = 0x00000000
mem[0x00cc] = 0x00000000   mem[0x00d0] = 0x00000000   mem[0x00d4] = 0x00000000

[WB] PC: 0x0000005c | Inst: 0x8fc20020 |                                                                 
     $ra=0x0000001c | $sp=0x00000084 | $s8=0x00000084 | $v0=0x00000000 | $v1=0x00000000 | a0=0x00000000
     [LW] mem[0x000000a4] =>     $v0 with 0x00000000
\------------------end-----------------------------/
/------------------START----------------------------\
==== Stack Dump  at PC 0x00000060 ====
mem[0x0000] = 0x00000000   mem[0x0004] = 0x00000000   mem[0x0008] = 0x00000000
mem[0x000c] = 0x00000000   mem[0x0010] = 0x00000000   mem[0x0014] = 0x00000000
mem[0x0018] = 0x00000000   mem[0x001c] = 0x00000000   mem[0x0020] = 0x00000000
mem[0x0024] = 0x00000000   mem[0x0028] = 0x00000000   mem[0x002c] = 0x00000000
mem[0x0030] = 0x00000000   mem[0x0034] = 0x00000000   mem[0x0038] = 0x00000000
mem[0x003c] = 0x00000000   mem[0x0040] = 0x00000000   mem[0x0044] = 0x00000000
mem[0x0048] = 0x00000000   mem[0x004c] = 0x00000000   mem[0x0050] = 0x00000000
mem[0x0054] = 0x00000000   mem[0x0058] = 0x00000000   mem[0x005c] = 0x00000000
mem[0x0060] = 0x00000000   mem[0x0064] = 0x00000000   mem[0x0068] = 0x00000000
mem[0x006c] = 0x00000000   mem[0x0070] = 0x00000000   mem[0x0074] = 0x00000000
mem[0x0078] = 0x00000000   mem[0x007c] = 0x00000000   mem[0x0080] = 0x00000000
mem[0x0084] = 0x00000000   mem[0x0088] = 0x00000000   mem[0x008c] = 0x00000000
mem[0x0090] = 0x00000000   mem[0x0094] = 0x00000000   mem[0x0098] = 0x00000000
mem[0x009c] = 0x000000a4   mem[0x00a0] = 0x0000001c   mem[0x00a4] = 0x00000000
mem[0x00a8] = 0x00000000   mem[0x00ac] = 0x00000000   mem[0x00b0] = 0x00000000
mem[0x00b4] = 0x00000000   mem[0x00b8] = 0x00000000   mem[0x00bc] = 0x00000005
mem[0x00c0] = 0x00000000   mem[0x00c4] = 0x000000cc   mem[0x00c8] = 0x00000000
mem[0x00cc] = 0x00000000   mem[0x00d0] = 0x00000000   mem[0x00d4] = 0x00000000

[WB] PC: 0x00000060 | Inst: 0x28420002 |                                                                 
     $ra=0x0000001c | $sp=0x00000084 | $s8=0x00000084 | $v0=0x00000001 | $v1=0x00000000 | a0=0x00000000
\------------------end-----------------------------/
/------------------START----------------------------\
==== Stack Dump  at PC 0x00000064 ====
mem[0x0000] = 0x00000000   mem[0x0004] = 0x00000000   mem[0x0008] = 0x00000000
mem[0x000c] = 0x00000000   mem[0x0010] = 0x00000000   mem[0x0014] = 0x00000000
mem[0x0018] = 0x00000000   mem[0x001c] = 0x00000000   mem[0x0020] = 0x00000000
mem[0x0024] = 0x00000000   mem[0x0028] = 0x00000000   mem[0x002c] = 0x00000000
mem[0x0030] = 0x00000000   mem[0x0034] = 0x00000000   mem[0x0038] = 0x00000000
mem[0x003c] = 0x00000000   mem[0x0040] = 0x00000000   mem[0x0044] = 0x00000000
mem[0x0048] = 0x00000000   mem[0x004c] = 0x00000000   mem[0x0050] = 0x00000000
mem[0x0054] = 0x00000000   mem[0x0058] = 0x00000000   mem[0x005c] = 0x00000000
mem[0x0060] = 0x00000000   mem[0x0064] = 0x00000000   mem[0x0068] = 0x00000000
mem[0x006c] = 0x00000000   mem[0x0070] = 0x00000000   mem[0x0074] = 0x00000000
mem[0x0078] = 0x00000000   mem[0x007c] = 0x00000000   mem[0x0080] = 0x00000000
mem[0x0084] = 0x00000000   mem[0x0088] = 0x00000000   mem[0x008c] = 0x00000000
mem[0x0090] = 0x00000000   mem[0x0094] = 0x00000000   mem[0x0098] = 0x00000000
mem[0x009c] = 0x000000a4   mem[0x00a0] = 0x0000001c   mem[0x00a4] = 0x00000000
mem[0x00a8] = 0x00000000   mem[0x00ac] = 0x00000000   mem[0x00b0] = 0x00000000
mem[0x00b4] = 0x00000000   mem[0x00b8] = 0x00000000   mem[0x00bc] = 0x00000005
mem[0x00c0] = 0x00000000   mem[0x00c4] = 0x000000cc   mem[0x00c8] = 0x00000000
mem[0x00cc] = 0x00000000   mem[0x00d0] = 0x00000000   mem[0x00d4] = 0x00000000

\------------------end-----------------------------/
/------------------START----------------------------\
==== Stack Dump  at PC 0x00000068 ====
